{
  "count": 1154,
  "next": "https://pokeapi.co/api/v2/pokemon?offset=2&limit=2",
  "previous": null,
  "results": [
    {
      "name": "bulbasaur",
      "url": "https://pokeapi.co/api/v2/pokemon/1/"
    },
    {
      "name": "ivysaur",
      "url": "https://pokeapi.co/api/v2/pokemon/2/"
    }
  ]
}